%YAML 1.1
%TAG !u! tag:unity3d.com,2011:
--- !u!1 &7938138416635853493
GameObject:
  m_ObjectHideFlags: 0
  m_CorrespondingSourceObject: {fileID: 0}
  m_PrefabInstance: {fileID: 0}
  m_PrefabAsset: {fileID: 0}
  serializedVersion: 6
  m_Component:
  - component: {fileID: 6759891236773747682}
  - component: {fileID: 2480744634219997854}
  m_Layer: 0
  m_Name: Item Spawner 1
  m_TagString: Untagged
  m_Icon: {fileID: 0}
  m_NavMeshLayer: 0
  m_StaticEditorFlags: 0
  m_IsActive: 1
--- !u!4 &6759891236773747682
Transform:
  m_ObjectHideFlags: 0
  m_CorrespondingSourceObject: {fileID: 0}
  m_PrefabInstance: {fileID: 0}
  m_PrefabAsset: {fileID: 0}
  m_GameObject: {fileID: 7938138416635853493}
  m_LocalRotation: {x: -0, y: -0, z: -0, w: 1}
  m_LocalPosition: {x: -0.603, y: 0.381, z: 0}
  m_LocalScale: {x: 1, y: 1, z: 1}
  m_Children: []
  m_Father: {fileID: 0}
  m_RootOrder: 0
  m_LocalEulerAnglesHint: {x: 0, y: 0, z: 0}
--- !u!114 &2480744634219997854
MonoBehaviour:
  m_ObjectHideFlags: 0
  m_CorrespondingSourceObject: {fileID: 0}
  m_PrefabInstance: {fileID: 0}
  m_PrefabAsset: {fileID: 0}
  m_GameObject: {fileID: 7938138416635853493}
  m_Enabled: 1
  m_EditorHideFlags: 0
  m_Script: {fileID: 11500000, guid: f688f71004e968c4e81d6c4739cccfbe, type: 3}
  m_Name: 
  m_EditorClassIdentifier: 
  items:
  - gameObject: {fileID: 131852513941715945, guid: 9706ed0ba664cb347ac542a41546a3dc, type: 3}
    weight: 0.25
  - gameObject: {fileID: 7276592808157326433, guid: 94e90433603f35c40ac8467986f16496, type: 3}
    weight: 0.3
  - gameObject: {fileID: 6488694889043608720, guid: cf04a2fd5f558db4cb43ff3a3ad5e7dd, type: 3}
    weight: 0.2
  - gameObject: {fileID: 4959935425017470803, guid: bbd8fec08abf6c8419f17dc8782a22d3, type: 3}
    weight: 0.25
